Intro to tidymodels and XGBoost in R
…
Note that I already did a lot of feature engineering on these (imputing, etc.), so my demo of how to do preprocessing will not include some common tasks. For examples of how to do many common thing, see HERE and HERE.

From the help, A recipe is a description of the steps to be applied to a data set in order to prepare it for data analysis. To initiate a recipe we use Rs standard formula syntax:

phyllo_recipe <- 
  recipe(response_taxon ~ ., data = training(merged_dat_split)) 

This object is a tibble and looks like this

summary(phyllo_recipe)

## # A tibble: 132 x 4
##    variable          type    role      source  
##    <chr>             <chr>   <chr>     <chr>   
##  1 sample            nominal predictor original
##  2 X.1.x             numeric predictor original
##  3 region_site       nominal predictor original
##  4 X.x               numeric predictor original
##  5 taxon.x           nominal predictor original
##  6 region_site_plant nominal predictor original
##  7 plant.x           nominal predictor original
##  8 forward_barcode   nominal predictor original
##  9 reverse_barcode   nominal predictor original
## 10 locus             nominal predictor original
## #  with 122 more rows
…
            region_site,
            X.x,
            taxon.x,
            region_site_plant,
            plant.x,
            forward_barcode,
            reverse_barcode,
            locus,
            samplename,
            stratify, 
           # X.1.y, 
            new_role = "ID")
summary(phyllo_recipe)

## # A tibble: 132 x 4
##    variable          type    role  source  
##    <chr>             <chr>   <chr> <chr>   
##  1 sample            nominal ID    original
##  2 X.1.x             numeric ID    original
##  3 region_site       nominal ID    original
##  4 X.x               numeric ID    original
##  5 taxon.x           nominal ID    original
##  6 region_site_plant nominal ID    original
##  7 plant.x           nominal ID    original
##  8 forward_barcode   nominal ID    original
##  9 reverse_barcode   nominal ID    original
## 10 locus             nominal ID    original
## #  with 122 more rows
…
